{
  "db_name": "PostgreSQL",
  "query": "DELETE FROM reg_tokens WHERE token = $1",
  "describe": {
    "columns": [],
    "parameters": {
      "Left": [
        "Text"
      ]
    },
    "nullable": []
  },
  "hash": "1226e9c800385279bd75821960a9db908ebbf3d8346165c773ddc77f0d743e33"
}
