{
  "db_name": "PostgreSQL",
  "query": "\n                    INSERT INTO\n                        novels\n                        (apub_id, preferred_username, title, summary,\n                        genre, tags, language, sensitive, inbox, outbox,\n                        public_key, published, last_refresh)\n                    VALUES\n                        ($1, $2, $3, $4, $5, $6, $7, $8, $9, $10, $11, $12,\n                        $13)\n                ",
  "describe": {
    "columns": [],
    "parameters": {
      "Left": [
        "Text",
        "Text",
        "Text",
        "Text",
        "Text",
        "TextArray",
        "Text",
        "Bool",
        "Text",
        "Text",
        "Text",
        "Timestamptz",
        "Timestamptz"
      ]
    },
    "nullable": []
  },
  "hash": "9be8769a85de9c1bca36205337d3d68c9dddd6fbda35d935ebdfd3be72aa2304"
}
