{
  "db_name": "PostgreSQL",
  "query": "\n        SELECT\n            apub_id\n        FROM\n            chapters\n        WHERE\n            audience = $1 AND\n            sequence = $2\n        ",
  "describe": {
    "columns": [
      {
        "ordinal": 0,
        "name": "apub_id",
        "type_info": "Text"
      }
    ],
    "parameters": {
      "Left": [
        "Text",
        "Int4"
      ]
    },
    "nullable": [
      false
    ]
  },
  "hash": "807a380ccb93ff7eff02e71b4532346412d878d153d1c409ac6d478357cad099"
}
