{
  "db_name": "PostgreSQL",
  "query": "\n        update\n            chapters\n        set\n            sequence = data.seq\n        from (\n            select\n                unnest($1::text[]) as apub_id,\n                generate_subscripts($1::text[], 1) as seq\n            ) as data\n        where\n            chapters.apub_id = data.apub_id and\n            chapters.audience = $2;\n    ",
  "describe": {
    "columns": [],
    "parameters": {
      "Left": [
        "TextArray",
        "Text"
      ]
    },
    "nullable": []
  },
  "hash": "7d28e442d522891f3659239ab765354bf877cd8e503ef2dc838e2ef0fcc0cba6"
}
