{
  "db_name": "PostgreSQL",
  "query": "INSERT INTO novels\n           (apub_id, preferred_username, title, summary, genre, tags, language,\n             sensitive, inbox, outbox, public_key, private_key)\n           VALUES ($1, $2, $3, $4, $5, $6, $7, $8, $9, $10, $11, $12)\n           RETURNING apub_id",
  "describe": {
    "columns": [
      {
        "ordinal": 0,
        "name": "apub_id",
        "type_info": "Text"
      }
    ],
    "parameters": {
      "Left": [
        "Text",
        "Text",
        "Text",
        "Text",
        "Text",
        "TextArray",
        "Text",
        "Bool",
        "Text",
        "Text",
        "Text",
        "Text"
      ]
    },
    "nullable": [
      false
    ]
  },
  "hash": "2fdb4d7c2d5964dc6a6dc67bec4650f3f9347d29a32ba2cd987805f63ba3e276"
}
