{
  "db_name": "PostgreSQL",
  "query": "\n                    DELETE FROM\n                        api_tokens\n                    WHERE\n                        expiry < now()\n                ",
  "describe": {
    "columns": [],
    "parameters": {
      "Left": []
    },
    "nullable": []
  },
  "hash": "8595bdb0af6966cd86a7ed62934fcd919895a028eede88029729ca4b99e34ae3"
}
